{
  "EDITOR_STATE": {
    "allProjectFiles": {
      "521d9658-d240-439e-8aab-ef88330700cd": {
        "id": "521d9658-d240-439e-8aab-ef88330700cd",
        "parent": null,
        "name": "indu-118-oct21.js",
        "type": "JS_LAMBDA",
        "isDirectory": false,
        "children": [],
        "isRemovable": true,
        "filePath": "indu-118-oct21.js",
        "cursor": {
          "lineNumber": 14,
          "column": 1
        },
        "config": {
          "runtime": "nodejs10.x",
          "handler": "handler",
          "timeout": 60,
          "memory": 128,
          "layers": [],
          "name": "indu118Oct21"
        },
        "triggers": [],
        "lastUpdated": 1603354677357
      }
    },
    "openFiles": [
      "521d9658-d240-439e-8aab-ef88330700cd"
    ],
    "currentFileId": "521d9658-d240-439e-8aab-ef88330700cd",
    "resources": {
      "s3induuuu": {
        "name": "s3induuuu",
        "type": "S3",
        "config": {
          "mode": 1,
          "bucket": {
            "name": "induuuu"
          }
        }
      }
    },
    "customTemplate": {
      "syntax": "JSON",
      "overrideDefault": false,
      "dialect": "CloudFormation",
      "definitions": null
    },
    "envVariables": [
      {
        "lambdaId": "all",
        "varKey": "SIGMA_AWS_ACC_ID",
        "varValue": null,
        "shouldPersist": false,
        "displayOnly": false,
        "editable": false
      }
    ],
    "packageJSON": {
      "dependencies": {
        "aws-sdk": {
          "name": "aws-sdk",
          "language": "nodejs",
          "version": "2.644.0",
          "dev": true,
          "notRemovable": false
        }
      }
    }
  },
  "PROJECT_META": {
    "sigmaVersion": "1.4.4.1",
    "projectName": "indu-118-oct21",
    "projectDescription": "",
    "projectVersion": "1.0.0",
    "projectRegion": "ap-southeast-1",
    "platform": "AWS",
    "language": "nodejs",
    "platformRegions": {},
    "lastSave": 1603354727720
  },
  "VCS_STATE": {
    "provider": "GitLab",
    "repo": {
      "name": "indu-118-oct21",
      "url": "https://gitlab.com/indunilSigma/indu-118-oct21"
    }
  }
}